<?xml version="1.0" encoding="UTF-8"?>
<svg width="405px" height="414px" viewBox="0 0 405 414" version="1.1" xmlns="http://www.w3.org/2000/svg" xmlns:xlink="http://www.w3.org/1999/xlink">
    <!-- Generator: Sketch 60.1 (88133) - https://sketch.com -->
    <title>Fill 1 Copy 6</title>
    <desc>Created with Sketch.</desc>
    <defs>
        <linearGradient x1="0%" y1="50%" x2="99.8100565%" y2="50%" id="linearGradient-1">
            <stop stop-color="#BBEBF4" offset="0%"></stop>
            <stop stop-color="#20BAA3" offset="99.9049831%"></stop>
        </linearGradient>
    </defs>
    <g id="Desktop" stroke="none" stroke-width="1" fill="none" fill-rule="evenodd">
        <g id="SubSummit21-Components" transform="translate(-179.000000, -130.000000)" fill="url(#linearGradient-1)">
            <g id="Fill-1-+-Fill-1-+-Fill-1-Copy-5-Mask" transform="translate(0.000000, -140.000000)">
                <path d="M247.684651,702.982245 L428.588495,401.731393 L569.757438,472.839636 C569.733534,472.987333 569.711336,473.136738 569.711336,473.291266 C569.711336,473.374079 569.729265,473.450062 569.736095,473.530314 L247.684651,702.982245 Z M286.659721,326.206738 C286.162842,325.781574 285.525096,325.514352 284.819905,325.514352 C283.535022,325.514352 282.461867,326.372364 282.109271,327.542845 L98.3231916,330.15103 L421.119099,242.440903 L286.659721,326.206738 Z M453.932706,353.133788 C453.932706,353.8552 454.210172,354.50746 454.654118,355.008607 L427.941358,399.492879 L287.61762,328.811507 C287.642379,328.662956 287.663722,328.513551 287.663722,328.35817 C287.663722,328.113999 287.623596,327.880928 287.565542,327.653832 L425.367323,241.805719 C425.869324,242.331624 426.568539,242.661169 427.348007,242.680805 L455.151851,350.80307 C454.415924,351.317877 453.932706,352.167351 453.932706,353.133788 L453.932706,353.133788 Z M456.115726,355.891377 C456.328308,355.942602 456.54772,355.976751 456.776523,355.976751 C457.29816,355.976751 457.781379,355.825639 458.202274,355.580615 L569.795857,470.946034 L429.470411,400.262955 L456.115726,355.891377 Z M91.8040111,333.623202 C92.2616173,333.186939 92.5638422,332.597857 92.6500703,331.939621 L282.133176,329.250331 C282.509677,330.380687 283.563195,331.201987 284.819905,331.201987 C285.619008,331.201987 286.338713,330.870735 286.855228,330.339707 L427.059442,400.960463 L245.627985,703.09067 C245.415403,703.039446 245.195991,703.005296 244.967188,703.005296 C244.938161,703.005296 244.910841,703.013833 244.881814,703.014687 L91.8040111,333.623202 Z M243.26824,703.581572 C242.577562,704.101502 242.124224,704.919388 242.124224,705.849114 C242.124224,707.42 243.397155,708.692931 244.967188,708.692931 C246.538075,708.692931 247.811005,707.42 247.811005,705.849114 C247.811005,705.578477 247.761488,705.322354 247.690628,705.073915 L570.413967,475.143888 C570.93475,475.745776 571.696289,476.135083 572.555154,476.135083 C574.126041,476.135083 575.398971,474.862152 575.398971,473.291266 C575.398971,471.721232 574.126041,470.448302 572.555154,470.448302 C572.292201,470.448302 572.042054,470.496111 571.800445,470.562703 L459.354827,354.317075 C459.520453,353.955942 459.620341,353.557244 459.620341,353.133788 C459.620341,351.565462 458.349971,350.294239 456.782499,350.290824 L428.991462,242.211246 C429.756415,241.701562 430.260977,240.832452 430.260977,239.844671 C430.260977,238.273784 428.988047,237 427.418014,237 C425.886399,237 424.647618,238.213169 424.586149,239.729416 L92.23259,330.036628 C91.7263205,329.250331 90.8478191,328.726987 89.8438175,328.726987 C88.2729306,328.726987 87,329.999917 87,331.570804 C87,333.141691 88.2729306,334.413768 89.8438175,334.413768 C89.9881,334.413768 90.1264064,334.392424 90.2647127,334.371935 L243.26824,703.581572 Z" id="Fill-1-Copy-6" transform="translate(331.199486, 472.846466) rotate(-237.000000) translate(-331.199486, -472.846466) "></path>
            </g>
        </g>
    </g>
</svg>