<?xml version="1.0" encoding="UTF-8"?>
<svg width="468px" height="447px" viewBox="0 0 468 447" version="1.1" xmlns="http://www.w3.org/2000/svg" xmlns:xlink="http://www.w3.org/1999/xlink">
    <!-- Generator: Sketch 60.1 (88133) - https://sketch.com -->
    <title>Fill 1 Copy 5</title>
    <desc>Created with Sketch.</desc>
    <defs>
        <linearGradient x1="0%" y1="50%" x2="99.8100565%" y2="50%" id="linearGradient-1">
            <stop stop-color="#BBEBF4" offset="0%"></stop>
            <stop stop-color="#20BAA3" offset="99.9049831%"></stop>
        </linearGradient>
    </defs>
    <g id="Desktop" stroke="none" stroke-width="1" fill="none" fill-rule="evenodd">
        <g id="SubSummit21-Components" transform="translate(-895.000000, -60.000000)" fill="url(#linearGradient-1)">
            <g id="Fill-1-+-Fill-1-+-Fill-1-Copy-5-Mask" transform="translate(0.000000, -1.000000)">
                <path d="M1054.17412,515.413362 L1235.07796,214.16251 L1376.2469,285.270753 C1376.223,285.418451 1376.2008,285.567856 1376.2008,285.722383 C1376.2008,285.805196 1376.21873,285.881179 1376.22556,285.961431 L1054.17412,515.413362 Z M1093.14919,138.637855 C1092.65231,138.212691 1092.01456,137.94547 1091.30937,137.94547 C1090.02449,137.94547 1088.95133,138.803481 1088.59874,139.973963 L904.812658,142.582147 L1227.60857,54.8720207 L1093.14919,138.637855 Z M1260.42217,165.564905 C1260.42217,166.286318 1260.69964,166.938577 1261.14358,167.439724 L1234.43082,211.923996 L1094.10709,141.242625 C1094.13185,141.094074 1094.15319,140.944669 1094.15319,140.789287 C1094.15319,140.545117 1094.11306,140.312045 1094.05501,140.084949 L1231.85679,54.236836 C1232.35879,54.7627416 1233.05801,55.0922864 1233.83747,55.1119224 L1261.64132,163.234187 C1260.90539,163.748994 1260.42217,164.598468 1260.42217,165.564905 L1260.42217,165.564905 Z M1262.60519,168.322495 C1262.81777,168.373719 1263.03719,168.407869 1263.26599,168.407869 C1263.78763,168.407869 1264.27084,168.256756 1264.69174,168.011732 L1376.28532,283.377151 L1235.95988,212.694072 L1262.60519,168.322495 Z M898.293478,146.05432 C898.751084,145.618057 899.053309,145.028974 899.139537,144.370739 L1088.62264,141.681449 C1088.99914,142.811804 1090.05266,143.633105 1091.30937,143.633105 C1092.10847,143.633105 1092.82818,143.301853 1093.34469,142.770824 L1233.54891,213.39158 L1052.11745,515.521788 C1051.90487,515.470563 1051.68546,515.436414 1051.45665,515.436414 C1051.42763,515.436414 1051.40031,515.444951 1051.37128,515.445805 L898.293478,146.05432 Z M1049.75771,516.01269 C1049.06703,516.532619 1048.61369,517.350505 1048.61369,518.280231 C1048.61369,519.851118 1049.88662,521.124048 1051.45665,521.124048 C1053.02754,521.124048 1054.30047,519.851118 1054.30047,518.280231 C1054.30047,518.009594 1054.25095,517.753472 1054.18009,517.505032 L1376.90343,287.575005 C1377.42422,288.176894 1378.18575,288.5662 1379.04462,288.5662 C1380.61551,288.5662 1381.88844,287.29327 1381.88844,285.722383 C1381.88844,284.15235 1380.61551,282.879419 1379.04462,282.879419 C1378.78167,282.879419 1378.53152,282.927229 1378.28991,282.993821 L1265.84429,166.748193 C1266.00992,166.38706 1266.10981,165.988362 1266.10981,165.564905 C1266.10981,163.99658 1264.83944,162.725356 1263.27197,162.721941 L1235.48093,54.6423639 C1236.24588,54.1326794 1236.75044,53.2635691 1236.75044,52.2757887 C1236.75044,50.7049018 1235.47751,49.4311174 1233.90748,49.4311174 C1232.37587,49.4311174 1231.13708,50.644286 1231.07562,52.1605334 L898.722056,142.467746 C898.215787,141.681449 897.337286,141.158104 896.333284,141.158104 C894.762397,141.158104 893.489466,142.431035 893.489466,144.001922 C893.489466,145.572809 894.762397,146.844885 896.333284,146.844885 C896.477566,146.844885 896.615873,146.823542 896.754179,146.803052 L1049.75771,516.01269 Z" id="Fill-1-Copy-5" transform="translate(1137.688952, 285.277583) rotate(-173.000000) translate(-1137.688952, -285.277583) "></path>
            </g>
        </g>
    </g>
</svg>